%YAML 1.1
%TAG !u! tag:unity3d.com,2011:
--- !u!1001 &6043486875828063525
PrefabInstance:
  m_ObjectHideFlags: 0
  serializedVersion: 2
  m_Modification:
    m_TransformParent: {fileID: 0}
    m_Modifications:
    - target: {fileID: 5555279269697383029, guid: e6071ca6c13e679469e4a8a42965098e, type: 3}
      propertyPath: m_Size.x
      value: 1.935018
      objectReference: {fileID: 0}
    - target: {fileID: 5555279269697383029, guid: e6071ca6c13e679469e4a8a42965098e, type: 3}
      propertyPath: m_Size.y
      value: 0.5214953
      objectReference: {fileID: 0}
    - target: {fileID: 5555279269697383029, guid: e6071ca6c13e679469e4a8a42965098e, type: 3}
      propertyPath: m_Offset.x
      value: 0.0044989344
      objectReference: {fileID: 0}
    - target: {fileID: 5555279269697383029, guid: e6071ca6c13e679469e4a8a42965098e, type: 3}
      propertyPath: m_Offset.y
      value: 0.1522766
      objectReference: {fileID: 0}
    - target: {fileID: 5786707128771568512, guid: e6071ca6c13e679469e4a8a42965098e, type: 3}
      propertyPath: m_RootOrder
      value: 0
      objectReference: {fileID: 0}
    - target: {fileID: 5786707128771568512, guid: e6071ca6c13e679469e4a8a42965098e, type: 3}
      propertyPath: m_LocalScale.x
      value: 1.171124
      objectReference: {fileID: 0}
    - target: {fileID: 5786707128771568512, guid: e6071ca6c13e679469e4a8a42965098e, type: 3}
      propertyPath: m_LocalScale.y
      value: 0.625315
      objectReference: {fileID: 0}
    - target: {fileID: 5786707128771568512, guid: e6071ca6c13e679469e4a8a42965098e, type: 3}
      propertyPath: m_LocalPosition.x
      value: -1.938
      objectReference: {fileID: 0}
    - target: {fileID: 5786707128771568512, guid: e6071ca6c13e679469e4a8a42965098e, type: 3}
      propertyPath: m_LocalPosition.y
      value: -3.6588
      objectReference: {fileID: 0}
    - target: {fileID: 5786707128771568512, guid: e6071ca6c13e679469e4a8a42965098e, type: 3}
      propertyPath: m_LocalPosition.z
      value: 0
      objectReference: {fileID: 0}
    - target: {fileID: 5786707128771568512, guid: e6071ca6c13e679469e4a8a42965098e, type: 3}
      propertyPath: m_LocalRotation.w
      value: 1
      objectReference: {fileID: 0}
    - target: {fileID: 5786707128771568512, guid: e6071ca6c13e679469e4a8a42965098e, type: 3}
      propertyPath: m_LocalRotation.x
      value: 0
      objectReference: {fileID: 0}
    - target: {fileID: 5786707128771568512, guid: e6071ca6c13e679469e4a8a42965098e, type: 3}
      propertyPath: m_LocalRotation.y
      value: 0
      objectReference: {fileID: 0}
    - target: {fileID: 5786707128771568512, guid: e6071ca6c13e679469e4a8a42965098e, type: 3}
      propertyPath: m_LocalRotation.z
      value: 0
      objectReference: {fileID: 0}
    - target: {fileID: 5786707128771568512, guid: e6071ca6c13e679469e4a8a42965098e, type: 3}
      propertyPath: m_LocalEulerAnglesHint.x
      value: 0
      objectReference: {fileID: 0}
    - target: {fileID: 5786707128771568512, guid: e6071ca6c13e679469e4a8a42965098e, type: 3}
      propertyPath: m_LocalEulerAnglesHint.y
      value: 0
      objectReference: {fileID: 0}
    - target: {fileID: 5786707128771568512, guid: e6071ca6c13e679469e4a8a42965098e, type: 3}
      propertyPath: m_LocalEulerAnglesHint.z
      value: 0
      objectReference: {fileID: 0}
    - target: {fileID: 5786707128771568513, guid: e6071ca6c13e679469e4a8a42965098e, type: 3}
      propertyPath: m_Sprite
      value: 
      objectReference: {fileID: 21300000, guid: 01fe635a21885f245b024eee4bfbd0ba, type: 3}
    - target: {fileID: 5786707128771568527, guid: e6071ca6c13e679469e4a8a42965098e, type: 3}
      propertyPath: m_Name
      value: Player
      objectReference: {fileID: 0}
    - target: {fileID: 6318593542240571623, guid: e6071ca6c13e679469e4a8a42965098e, type: 3}
      propertyPath: speed
      value: 8
      objectReference: {fileID: 0}
    m_RemovedComponents: []
  m_SourcePrefab: {fileID: 100100000, guid: e6071ca6c13e679469e4a8a42965098e, type: 3}
